<svg xmlns="http://www.w3.org/2000/svg" viewBox="0 0 92 92">
    <style>
    .icon-kt-1 {
        fill: none;
        stroke: #E14D57;
        stroke-width: 7;
        stroke-miterlimit: 10;
    }
    </style>
    <path style="fill: none;stroke: #E14D57;stroke-width: 7;stroke-miterlimit: 10;" d="M11.5 63.2c0-19 15.4-34.5 34.5-34.5S80.5 44 80.5 63.2" />
    <path style="fill: #E14D57;" d="M47.5 63.6c-.6 0-1.2 0-1.7-.3-1.3-.5-2.2-1.4-2.8-2.6-.6-1.2-.6-2.6 0-3.8l16-43.6c.7-2 2.6-3.3 4.7-3.3.6 0 1.2.2 1.7.4 1.3.5 2.2 1.4 2.8 2.6.6 1.2.6 2.6 0 3.8l-16 43.6c-.7 2-2.6 3.2-4.7 3.2z" />
    <path style="fill: #FBEDEC;" d="M63.6 12.7c.3 0 .6 0 1 .2 1.2.4 2 1.8 1.4 3L50 59.6c-.5 1-1.4 1.6-2.4 1.6h-1c-1.2-.6-2-2-1.4-3.3l16-43.5c.5-1 1.4-1.5 2.4-1.5m0-5c-3 0-6 2-7 5L40.6 56c-.8 2-.7 4 0 5.7s2.4 3.2 4.3 4c.7.2 1.6.4 2.5.4 3 0 6-2 7-4.8l16-43.5c.8-2 .7-4 0-5.7-1-1.8-2.4-3.2-4.3-4-.8-.2-1.7-.3-2.6-.3z" />
    <g>
        <circle style="fill: #E14D57;" cx="46" cy="63.2" r="6.5" />
    </g>
</svg>